------------------------------------------------------------------------
r1167605 | scripty | 2010-08-25 03:15:20 +0100 (dc, 25 ago 2010) | 1 line

SVN_SILENT made messages (.desktop file)
------------------------------------------------------------------------
