------------------------------------------------------------------------
r945287 | mlaurent | 2009-03-27 08:17:00 +0000 (Fri, 27 Mar 2009) | 2 lines

backport: fix mem leak

------------------------------------------------------------------------
r945812 | mlaurent | 2009-03-28 11:34:05 +0000 (Sat, 28 Mar 2009) | 3 lines

Backport:
fix crash when kttsd is not start

------------------------------------------------------------------------
r945832 | mlaurent | 2009-03-28 12:17:32 +0000 (Sat, 28 Mar 2009) | 3 lines

Backport:
fix icons

------------------------------------------------------------------------
r945866 | pino | 2009-03-28 13:22:06 +0000 (Sat, 28 Mar 2009) | 2 lines

backport the real fix of the icon

------------------------------------------------------------------------
r946792 | mlaurent | 2009-03-30 11:45:13 +0000 (Mon, 30 Mar 2009) | 2 lines

Don't load twice

------------------------------------------------------------------------
r950929 | mlaurent | 2009-04-08 07:50:06 +0000 (Wed, 08 Apr 2009) | 4 lines

Backport
set good domainename


------------------------------------------------------------------------
r950990 | mlaurent | 2009-04-08 11:24:27 +0000 (Wed, 08 Apr 2009) | 5 lines

Backport:
It doesn't work.
signal just that it runs


------------------------------------------------------------------------
r950996 | mlaurent | 2009-04-08 11:31:51 +0000 (Wed, 08 Apr 2009) | 3 lines

Backport:
fix action+shortcut

------------------------------------------------------------------------
r954657 | mlaurent | 2009-04-16 07:07:25 +0000 (Thu, 16 Apr 2009) | 3 lines

Backport:
Don't close kttsmgr when we close aboutdata dialog

------------------------------------------------------------------------
