------------------------------------------------------------------------
r1108481 | scripty | 2010-03-29 14:38:14 +1300 (Mon, 29 Mar 2010) | 1 line

SVN_SILENT made messages (.desktop file)
------------------------------------------------------------------------
r1109771 | scripty | 2010-04-01 15:10:15 +1300 (Thu, 01 Apr 2010) | 1 line

SVN_SILENT made messages (.desktop file)
------------------------------------------------------------------------
r1111914 | scripty | 2010-04-07 13:44:13 +1200 (Wed, 07 Apr 2010) | 1 line

SVN_SILENT made messages (.desktop file)
------------------------------------------------------------------------
r1118223 | scripty | 2010-04-24 14:03:50 +1200 (Sat, 24 Apr 2010) | 1 line

SVN_SILENT made messages (.desktop file)
------------------------------------------------------------------------
